\relax 
\providecommand\hyper@newdestlabel[2]{}
\providecommand*\new@tpo@label[2]{}
\@nameuse{bbl@beforestart}
\bibstyle{biblatex}
\bibdata{MA_thesis-blx,Ref}
\citation{biblatex-control}
\abx@aux@refcontext{nty/global//global/global}
\providecommand\HyperFirstAtBeginDocument{\AtBeginDocument}
\HyperFirstAtBeginDocument{\ifx\hyper@anchor\@undefined
\global\let\oldcontentsline\contentsline
\gdef\contentsline#1#2#3#4{\oldcontentsline{#1}{#2}{#3}}
\global\let\oldnewlabel\newlabel
\gdef\newlabel#1#2{\newlabelxx{#1}#2}
\gdef\newlabelxx#1#2#3#4#5#6{\oldnewlabel{#1}{{#2}{#3}}}
\AtEndDocument{\ifx\hyper@anchor\@undefined
\let\contentsline\oldcontentsline
\let\newlabel\oldnewlabel
\fi}
\fi}
\global\let\hyper@last\relax 
\gdef\HyperFirstAtBeginDocument#1{#1}
\providecommand\HyField@AuxAddToFields[1]{}
\providecommand\HyField@AuxAddToCoFields[2]{}
\providecommand\BKM@entry[2]{}
\AC@reset@newl@bel
\BKM@entry{id=1,dest={46726F6E7420506167652E30},srcline={15}}{46726F6E742050616765}
\@writefile{toc}{\boolfalse {citerequest}\boolfalse {citetracker}\boolfalse {pagetracker}\boolfalse {backtracker}\relax }
\@writefile{lof}{\boolfalse {citerequest}\boolfalse {citetracker}\boolfalse {pagetracker}\boolfalse {backtracker}\relax }
\@writefile{lot}{\boolfalse {citerequest}\boolfalse {citetracker}\boolfalse {pagetracker}\boolfalse {backtracker}\relax }
\babel@aux{english}{}
\BKM@entry{id=2,dest={73656374696F6E2A2E31},srcline={205}}{4162737472616374}
\@writefile{toc}{\contentsline {chapter}{Abstract}{i}{section*.1}\protected@file@percent }
\BKM@entry{id=3,dest={636861707465722A2E32},srcline={215}}{41636B6E6F776C6564676D656E74}
\@writefile{toc}{\contentsline {chapter}{Acknowledgment}{iii}{chapter*.2}\protected@file@percent }
\BKM@entry{id=4,dest={73656374696F6E2A2E35},srcline={227}}{4C697374206F662046696775726573}
\@writefile{toc}{\contentsline {chapter}{List of Figures}{vii}{section*.5}\protected@file@percent }
\AC@undonewlabel{acro:IAF}
\newlabel{acro:IAF}{{}{vii}{\list@fname }{section*.7}{}}
\acronymused{IAF}
\AC@undonewlabel{acro:CUBA}
\newlabel{acro:CUBA}{{}{vii}{\list@fname }{section*.8}{}}
\acronymused{CUBA}
\acronymused{IAF}
\acronymused{CUBA}
\AC@undonewlabel{acro:CPU}
\newlabel{acro:CPU}{{}{vii}{\list@fname }{section*.9}{}}
\acronymused{CPU}
\BKM@entry{id=5,dest={636861707465722A2E36},srcline={233}}{4C697374206F66205461626C6573}
\@writefile{toc}{\contentsline {chapter}{List of Tables}{ix}{chapter*.6}\protected@file@percent }
\BKM@entry{id=6,dest={636861707465722A2E3131},srcline={241}}{416262726576696174696F6E73}
\@writefile{toc}{\contentsline {chapter}{Abbreviations}{xi}{chapter*.11}\protected@file@percent }
\newacro{ASIC}[\AC@hyperlink{ASIC}{ASIC}]{{Application Specific Integrated Circuit}}
\newacro{LIF}[\AC@hyperlink{LIF}{LIF}]{{Leaky Integrate and Fire}}
\newacro{CUBA}[\AC@hyperlink{CUBA}{CUBA}]{{current-based}}
\newacro{COBA}[\AC@hyperlink{COBA}{COBA}]{{conductance-based}}
\newacro{SNN}[\AC@hyperlink{SNN}{SNN}]{{Spiking Neural Network}}
\newacro{ALUT}[\AC@hyperlink{ALUT}{ALUT}]{{Adaptive Lookup Table}}
\newacro{AWGN}[\AC@hyperlink{AWGN}{AWGN}]{{Additive White Gaussian Noise}}
\newacro{CNN}[\AC@hyperlink{CNN}{CNN}]{{Convolutional Neural Network}}
\newacro{CPU}[\AC@hyperlink{CPU}{CPU}]{{Central Processing Unit}}
\newacro{ODE}[\AC@hyperlink{ODE}{ODE}]{{Ordinary Differential Equation}}
\newacro{ANN}[\AC@hyperlink{ANN}{ANN}]{{Artificial Neural Network}}
\newacro{FPGA}[\AC@hyperlink{FPGA}{FPGA}]{{Field Programmable Gate Array}}
\newacro{VLIW}[\AC@hyperlink{VLIW}{VLIW}]{{Very Long Instruction Word}}
\newacro{STDP}[\AC@hyperlink{STDP}{STDP}]{{spike-time dependent plasticity}}
\newacro{IPC}[\AC@hyperlink{IPC}{IPC}]{{Instructions per cycle}}
\newacro{RISC}[\AC@hyperlink{RISC}{RISC}]{{Reduced Instruction Set Computer}}
\newacro{ALU}[\AC@hyperlink{ALU}{ALU}]{{Arithmetic logic unit}}
\newacro{CISC}[\AC@hyperlink{CISC}{CISC}]{{Complex Instruction Set Computer}}
\newacro{CLB}[\AC@hyperlink{CLB}{CLB}]{{Configurable Logic Block}}
\newacro{SIMD}[\AC@hyperlink{SIMD}{SIMD}]{{Single Instruction, Multiple Data stream}}
\newacro{SISD}[\AC@hyperlink{SISD}{SISD}]{{Single Instruction, Single Data stream}}
\newacro{MISD}[\AC@hyperlink{MISD}{MISD}]{{Multiple Instruction, Single Data stream}}
\newacro{MIMD}[\AC@hyperlink{MIMD}{MIMD}]{{Multiple Instruction, Multiple Data stream}}
\newacro{FIFO}[\AC@hyperlink{FIFO}{FIFO}]{{First in, first out}}
\newacro{AXI}[\AC@hyperlink{AXI}{AXI}]{{Advanced eXtensible Interface}}
\newacro{BRAM}[\AC@hyperlink{BRAM}{BRAM}]{{Block Random Access Memory}}
\newacro{IAF}[\AC@hyperlink{IAF}{IAF}]{Integrate-and-fire}
\newacro{II}[\AC@hyperlink{II}{II}]{Initiation interval}
\newacro{BOOM}[\AC@hyperlink{BOOM}{BOOM}]{Berkeley Out-of-Order Machine}
\newacro{LUT}[\AC@hyperlink{LUT}{LUT}]{Look-up table}
\newacro{FF}[\AC@hyperlink{FF}{FF}]{Flip-Flop}
\newacro{DSP}[\AC@hyperlink{DSP}{DSP}]{Digital Signal Processing}
\newacro{ILP}[\AC@hyperlink{ILP}{ILP}]{Instruction level parallelism}
\newacro{HLS}[\AC@hyperlink{HLS}{HLS}]{High-level synthesis}
\newacro{RTL}[\AC@hyperlink{RTL}{RTL}]{register-transfer level}
\newacro{NPU}[\AC@hyperlink{NPU}{NPU}]{Neural processing unit}
\newacro{TPU}[\AC@hyperlink{TPU}{TPU}]{Tensor processing unit}
\newacro{ReRAM}[\AC@hyperlink{ReRAM}{ReRAM}]{Resistive random access memory}
\newacro{SoC}[\AC@hyperlink{SoC}{SoC}]{System-on-Chip}
\newacro{RK}[\AC@hyperlink{RK}{RK}]{Runge-Kutta}
\BKM@entry{id=7,dest={636861707465722E31},srcline={7}}{496E74726F64756374696F6E}
\citation{fedus2022switch}
\abx@aux@cite{fedus2022switch}
\abx@aux@segm{0}{0}{fedus2022switch}
\citation{9782767}
\abx@aux@cite{9782767}
\abx@aux@segm{0}{0}{9782767}
\citation{6330636}
\abx@aux@cite{6330636}
\abx@aux@segm{0}{0}{6330636}
\citation{2111.03746}
\abx@aux@cite{2111.03746}
\abx@aux@segm{0}{0}{2111.03746}
\citation{1911.02385}
\abx@aux@cite{1911.02385}
\abx@aux@segm{0}{0}{1911.02385}
\@writefile{toc}{\contentsline {chapter}{\numberline {1}Introduction}{1}{chapter.1}\protected@file@percent }
\@writefile{lof}{\addvspace {10\p@ }}
\@writefile{lot}{\addvspace {10\p@ }}
\@writefile{lol}{\addvspace {10\p@ }}
\@writefile{loa}{\addvspace {10\p@ }}
\AC@undonewlabel{acro:ANN}
\newlabel{acro:ANN}{{1}{1}{Introduction}{section*.12}{}}
\acronymused{ANN}
\acronymused{ANN}
\acronymused{CPU}
\AC@undonewlabel{acro:FPGA}
\newlabel{acro:FPGA}{{1}{1}{Introduction}{section*.13}{}}
\acronymused{FPGA}
\AC@undonewlabel{acro:ASIC}
\newlabel{acro:ASIC}{{1}{1}{Introduction}{section*.14}{}}
\acronymused{ASIC}
\acronymused{CPU}
\acronymused{FPGA}
\acronymused{ASIC}
\citation{MARKRAM201139}
\abx@aux@cite{MARKRAM201139}
\abx@aux@segm{0}{0}{MARKRAM201139}
\BKM@entry{id=8,dest={73656374696F6E2E312E31},srcline={29}}{52657365617263682070726F626C656D}
\citation{9782767}
\abx@aux@cite{9782767}
\abx@aux@segm{0}{0}{9782767}
\citation{sp004764}
\abx@aux@cite{sp004764}
\abx@aux@segm{0}{0}{sp004764}
\citation{meffin_burkitt_grayden_2004}
\abx@aux@cite{meffin_burkitt_grayden_2004}
\abx@aux@segm{0}{0}{meffin_burkitt_grayden_2004}
\acronymused{CPU}
\@writefile{toc}{\contentsline {section}{\numberline {1.1}Research problem}{2}{section.1.1}\protected@file@percent }
\AC@undonewlabel{acro:LIF}
\newlabel{acro:LIF}{{1.1}{2}{Research problem}{section*.15}{}}
\acronymused{LIF}
\AC@undonewlabel{acro:SNN}
\newlabel{acro:SNN}{{1.1}{2}{Research problem}{section*.16}{}}
\acronymused{SNN}
\AC@undonewlabel{acro:COBA}
\newlabel{acro:COBA}{{1.1}{2}{Research problem}{section*.17}{}}
\acronymused{COBA}
\AC@undonewlabel{acro:ODE}
\newlabel{acro:ODE}{{1.1}{2}{Research problem}{section*.18}{}}
\acronymused{ODE}
\BKM@entry{id=9,dest={73656374696F6E2E312E32},srcline={36}}{4D6574686F646F6C6F67696573}
\BKM@entry{id=10,dest={73656374696F6E2E312E33},srcline={43}}{446F63756D656E74204F75746C696E65}
\@writefile{toc}{\contentsline {section}{\numberline {1.2}Methodologies}{3}{section.1.2}\protected@file@percent }
\acronymused{FPGA}
\acronymused{FPGA}
\@writefile{toc}{\contentsline {section}{\numberline {1.3}Document Outline}{4}{section.1.3}\protected@file@percent }
\BKM@entry{id=11,dest={636861707465722E32},srcline={1}}{4261636B67726F756E6420616E642072656C6174656420776F726B}
\citation{esmaeilzadeh2012neural}
\abx@aux@cite{esmaeilzadeh2012neural}
\abx@aux@segm{0}{0}{esmaeilzadeh2012neural}
\citation{jouppi2017datacenter}
\abx@aux@cite{jouppi2017datacenter}
\abx@aux@segm{0}{0}{jouppi2017datacenter}
\citation{CHEN2020264}
\abx@aux@cite{CHEN2020264}
\abx@aux@segm{0}{0}{CHEN2020264}
\citation{9782767}
\abx@aux@cite{9782767}
\abx@aux@segm{0}{0}{9782767}
\BKM@entry{id=12,dest={73656374696F6E2E322E31},srcline={5}}{4E6575726F6E206D6F64656C}
\citation{herculano2012remarkable}
\abx@aux@cite{herculano2012remarkable}
\abx@aux@segm{0}{0}{herculano2012remarkable}
\citation{epflbook}
\abx@aux@cite{epflbook}
\abx@aux@segm{0}{0}{epflbook}
\@writefile{toc}{\contentsline {chapter}{\numberline {2}Background and related work}{5}{chapter.2}\protected@file@percent }
\@writefile{lof}{\addvspace {10\p@ }}
\@writefile{lot}{\addvspace {10\p@ }}
\@writefile{lol}{\addvspace {10\p@ }}
\@writefile{loa}{\addvspace {10\p@ }}
\acronymused{SNN}
\acronymused{SNN}
\acronymused{ANN}
\acronymused{SNN}
\acronymused{ANN}
\AC@undonewlabel{acro:NPU}
\newlabel{acro:NPU}{{2}{5}{Background and related work}{section*.19}{}}
\acronymused{NPU}
\AC@undonewlabel{acro:TPU}
\newlabel{acro:TPU}{{2}{5}{Background and related work}{section*.20}{}}
\acronymused{TPU}
\AC@undonewlabel{acro:ReRAM}
\newlabel{acro:ReRAM}{{2}{5}{Background and related work}{section*.21}{}}
\acronymused{ReRAM}
\acronymused{SNN}
\@writefile{toc}{\contentsline {section}{\numberline {2.1}Neuron model}{5}{section.2.1}\protected@file@percent }
\citation{epflbook}
\abx@aux@cite{epflbook}
\abx@aux@segm{0}{0}{epflbook}
\citation{epflbook}
\abx@aux@cite{epflbook}
\abx@aux@segm{0}{0}{epflbook}
\BKM@entry{id=13,dest={73756273656374696F6E2E322E312E31},srcline={24}}{496E7465677261746520616E642046697265206D6F64656C73}
\citation{epflbook}
\abx@aux@cite{epflbook}
\abx@aux@segm{0}{0}{epflbook}
\acronymused{SNN}
\newlabel{key}{{2.1}{6}{Neuron model}{equation.2.1.1}{}}
\@writefile{toc}{\contentsline {subsection}{\numberline {2.1.1}Integrate and Fire models}{6}{subsection.2.1.1}\protected@file@percent }
\@writefile{lof}{\contentsline {figure}{\numberline {2.1}{\ignorespaces Behavior of membrane potential with time. The membrane potential depolarizes initially, then reaches threshold and then repolarizes. It then finally returns to rest.}}{7}{figure.2.1}\protected@file@percent }
\newlabel{key}{{2.3}{7}{Integrate and Fire models}{equation.2.1.3}{}}
\BKM@entry{id=14,dest={73756273656374696F6E2E322E312E32},srcline={45}}{486F64676B696E2D4875786C6579206D6F64656C}
\citation{hodgkin1990quantitative}
\abx@aux@cite{hodgkin1990quantitative}
\abx@aux@segm{0}{0}{hodgkin1990quantitative}
\citation{epflbook}
\abx@aux@cite{epflbook}
\abx@aux@segm{0}{0}{epflbook}
\BKM@entry{id=15,dest={73656374696F6E2E322E32},srcline={57}}{53796E61707365206D6F64656C73}
\BKM@entry{id=16,dest={73756273656374696F6E2E322E322E31},srcline={58}}{436F6E64756374616E63652D62617365642073796E61707365}
\citation{connor1971prediction}
\abx@aux@cite{connor1971prediction}
\abx@aux@segm{0}{0}{connor1971prediction}
\@writefile{toc}{\contentsline {subsection}{\numberline {2.1.2}Hodgkin-Huxley model}{8}{subsection.2.1.2}\protected@file@percent }
\@writefile{toc}{\contentsline {section}{\numberline {2.2}Synapse models}{8}{section.2.2}\protected@file@percent }
\@writefile{toc}{\contentsline {subsection}{\numberline {2.2.1}Conductance-based synapse}{8}{subsection.2.2.1}\protected@file@percent }
\acronymused{COBA}
\BKM@entry{id=17,dest={73756273656374696F6E2E322E322E32},srcline={68}}{43757272656E742D62617365642073796E61707365}
\BKM@entry{id=18,dest={73656374696F6E2E322E33},srcline={75}}{4E756D65726963616C20736F6C76657273}
\citation{braun1983differential}
\abx@aux@cite{braun1983differential}
\abx@aux@segm{0}{0}{braun1983differential}
\citation{butcher1996history}
\abx@aux@cite{butcher1996history}
\abx@aux@segm{0}{0}{butcher1996history}
\@writefile{toc}{\contentsline {subsection}{\numberline {2.2.2}Current-based synapse}{9}{subsection.2.2.2}\protected@file@percent }
\acronymused{CUBA}
\@writefile{toc}{\contentsline {section}{\numberline {2.3}Numerical solvers}{9}{section.2.3}\protected@file@percent }
\AC@undonewlabel{acro:RK}
\newlabel{acro:RK}{{2.3}{9}{Numerical solvers}{section*.22}{}}
\acronymused{RK}
\citation{Gewaltig:NEST}
\abx@aux@cite{Gewaltig:NEST}
\abx@aux@segm{0}{0}{Gewaltig:NEST}
\BKM@entry{id=19,dest={73656374696F6E2E322E34},srcline={90}}{536F66747761726520706970656C696E696E67}
\citation{lam1988software}
\abx@aux@cite{lam1988software}
\abx@aux@segm{0}{0}{lam1988software}
\citation{hsu1986highly}
\abx@aux@cite{hsu1986highly}
\abx@aux@segm{0}{0}{hsu1986highly}
\citation{rau1996iterative}
\abx@aux@cite{rau1996iterative}
\abx@aux@segm{0}{0}{rau1996iterative}
\citation{huff1993lifetime}
\abx@aux@cite{huff1993lifetime}
\abx@aux@segm{0}{0}{huff1993lifetime}
\BKM@entry{id=20,dest={73656374696F6E2E322E35},srcline={103}}{52656C617465642050726F6A65637473}
\BKM@entry{id=21,dest={73756273656374696F6E2E322E352E31},srcline={105}}{4E4553542073696D756C61746F72}
\citation{Gewaltig:NEST}
\abx@aux@cite{Gewaltig:NEST}
\abx@aux@segm{0}{0}{Gewaltig:NEST}
\citation{eppler2009pynest}
\abx@aux@cite{eppler2009pynest}
\abx@aux@segm{0}{0}{eppler2009pynest}
\acronymused{RK}
\acronymused{RK}
\acronymused{ODE}
\@writefile{toc}{\contentsline {section}{\numberline {2.4}Software pipelining}{10}{section.2.4}\protected@file@percent }
\AC@undonewlabel{acro:II}
\newlabel{acro:II}{{2.4}{10}{Software pipelining}{section*.23}{}}
\acronymused{II}
\acronymused{II}
\citation{caporale2008spike}
\abx@aux@cite{caporale2008spike}
\abx@aux@segm{0}{0}{caporale2008spike}
\citation{hodgkin1990quantitative}
\abx@aux@cite{hodgkin1990quantitative}
\abx@aux@segm{0}{0}{hodgkin1990quantitative}
\citation{nestml}
\abx@aux@cite{nestml}
\abx@aux@segm{0}{0}{nestml}
\@writefile{lof}{\contentsline {figure}{\numberline {2.2}{\ignorespaces The execution flow of a regular loop and a software pipelined loop. Loop-carried dependencies execute operations of different iterations within the kernel.}}{11}{figure.2.2}\protected@file@percent }
\newlabel{swpipeline}{{2.2}{11}{The execution flow of a regular loop and a software pipelined loop. Loop-carried dependencies execute operations of different iterations within the kernel}{figure.2.2}{}}
\@writefile{toc}{\contentsline {section}{\numberline {2.5}Related Projects}{11}{section.2.5}\protected@file@percent }
\@writefile{toc}{\contentsline {subsection}{\numberline {2.5.1}NEST simulator}{11}{subsection.2.5.1}\protected@file@percent }
\AC@undonewlabel{acro:STDP}
\newlabel{acro:STDP}{{2.5.1}{11}{NEST simulator}{section*.24}{}}
\acronymused{STDP}
\BKM@entry{id=22,dest={73756273656374696F6E2E322E352E32},srcline={109}}{4C6F6968692032}
\citation{8259423}
\abx@aux@cite{8259423}
\abx@aux@segm{0}{0}{8259423}
\citation{orchard2021efficient}
\abx@aux@cite{orchard2021efficient}
\abx@aux@segm{0}{0}{orchard2021efficient}
\citation{2111.03746}
\abx@aux@cite{2111.03746}
\abx@aux@segm{0}{0}{2111.03746}
\BKM@entry{id=23,dest={73756273656374696F6E2E322E352E33},srcline={111}}{546865205370694E4E616B65722070726F6A656374}
\citation{furber2014spinnaker}
\abx@aux@cite{furber2014spinnaker}
\abx@aux@segm{0}{0}{furber2014spinnaker}
\citation{furber2012overview}
\abx@aux@cite{furber2012overview}
\abx@aux@segm{0}{0}{furber2012overview}
\citation{furber2020spinnaker}
\abx@aux@cite{furber2020spinnaker}
\abx@aux@segm{0}{0}{furber2020spinnaker}
\@writefile{toc}{\contentsline {subsection}{\numberline {2.5.2}Loihi 2}{12}{subsection.2.5.2}\protected@file@percent }
\acronymused{ASIC}
\@writefile{toc}{\contentsline {subsection}{\numberline {2.5.3}The SpiNNaker project}{12}{subsection.2.5.3}\protected@file@percent }
\acronymused{SNN}
\BKM@entry{id=24,dest={73756273656374696F6E2E322E352E34},srcline={116}}{465047412D62617365642064657369676E73}
\citation{schuman2017survey}
\abx@aux@cite{schuman2017survey}
\abx@aux@segm{0}{0}{schuman2017survey}
\citation{7045812}
\abx@aux@cite{7045812}
\abx@aux@segm{0}{0}{7045812}
\citation{soltic2008evolving}
\abx@aux@cite{soltic2008evolving}
\abx@aux@segm{0}{0}{soltic2008evolving}
\citation{yousefzadeh2017hardware}
\abx@aux@cite{yousefzadeh2017hardware}
\abx@aux@segm{0}{0}{yousefzadeh2017hardware}
\citation{cao2015spiking}
\abx@aux@cite{cao2015spiking}
\abx@aux@segm{0}{0}{cao2015spiking}
\BKM@entry{id=25,dest={73656374696F6E2E322E36},srcline={119}}{466C796E6E2773207461786F6E6F6D79}
\citation{1447203}
\abx@aux@cite{1447203}
\abx@aux@segm{0}{0}{1447203}
\citation{5009071}
\abx@aux@cite{5009071}
\abx@aux@segm{0}{0}{5009071}
\citation{duncan1990survey}
\abx@aux@cite{duncan1990survey}
\abx@aux@segm{0}{0}{duncan1990survey}
\@writefile{toc}{\contentsline {subsection}{\numberline {2.5.4}FPGA-based designs}{13}{subsection.2.5.4}\protected@file@percent }
\acronymused{FPGA}
\acronymused{FPGA}
\acronymused{FPGA}
\acronymused{FPGA}
\acronymused{STDP}
\acronymused{SNN}
\acronymused{FPGA}
\@writefile{toc}{\contentsline {section}{\numberline {2.6}Flynn's taxonomy}{13}{section.2.6}\protected@file@percent }
\AC@undonewlabel{acro:SISD}
\newlabel{acro:SISD}{{2.6}{13}{Flynn's taxonomy}{section*.25}{}}
\acronymused{SISD}
\AC@undonewlabel{acro:SIMD}
\newlabel{acro:SIMD}{{2.6}{13}{Flynn's taxonomy}{section*.26}{}}
\acronymused{SIMD}
\AC@undonewlabel{acro:MISD}
\newlabel{acro:MISD}{{2.6}{13}{Flynn's taxonomy}{section*.27}{}}
\citation{shen2013modern}
\abx@aux@cite{shen2013modern}
\abx@aux@segm{0}{0}{shen2013modern}
\acronymused{MISD}
\AC@undonewlabel{acro:MIMD}
\newlabel{acro:MIMD}{{2.6}{14}{Flynn's taxonomy}{section*.28}{}}
\acronymused{MIMD}
\AC@undonewlabel{acro:IPC}
\newlabel{acro:IPC}{{2.6}{14}{Flynn's taxonomy}{section*.29}{}}
\acronymused{IPC}
\AC@undonewlabel{acro:VLIW}
\newlabel{acro:VLIW}{{2.6}{14}{Flynn's taxonomy}{section*.30}{}}
\acronymused{VLIW}
\acronymused{SIMD}
\acronymused{MIMD}
\BKM@entry{id=26,dest={636861707465722E33},srcline={1}}{44657369676E206465636973696F6E7320616E64206368616C6C656E676573}
\citation{1653825}
\abx@aux@cite{1653825}
\abx@aux@segm{0}{0}{1653825}
\@writefile{toc}{\contentsline {chapter}{\numberline {3}Design decisions and challenges}{15}{chapter.3}\protected@file@percent }
\@writefile{lof}{\addvspace {10\p@ }}
\@writefile{lot}{\addvspace {10\p@ }}
\@writefile{lol}{\addvspace {10\p@ }}
\@writefile{loa}{\addvspace {10\p@ }}
\acronymused{IPC}
\AC@undonewlabel{acro:RISC}
\newlabel{acro:RISC}{{3}{15}{Design decisions and challenges}{section*.31}{}}
\acronymused{RISC}
\AC@undonewlabel{acro:CISC}
\newlabel{acro:CISC}{{3}{15}{Design decisions and challenges}{section*.32}{}}
\acronymused{CISC}
\acronymused{MISD}
\acronymused{MIMD}
\BKM@entry{id=27,dest={73656374696F6E2E332E31},srcline={10}}{50726F636573736F722074797065}
\citation{1653825}
\abx@aux@cite{1653825}
\abx@aux@segm{0}{0}{1653825}
\citation{jouppi2017datacenter}
\abx@aux@cite{jouppi2017datacenter}
\abx@aux@segm{0}{0}{jouppi2017datacenter}
\citation{shen2013modern}
\abx@aux@cite{shen2013modern}
\abx@aux@segm{0}{0}{shen2013modern}
\@writefile{toc}{\contentsline {section}{\numberline {3.1}Processor type}{16}{section.3.1}\protected@file@percent }
\acronymused{VLIW}
\acronymused{VLIW}
\BKM@entry{id=28,dest={73656374696F6E2E332E32},srcline={22}}{4D656D6F7279206F7267616E697A6174696F6E}
\BKM@entry{id=29,dest={73656374696F6E2E332E33},srcline={27}}{496E737472756374696F6E20446570656E64656E63696573}
\acronymused{CISC}
\acronymused{RISC}
\AC@undonewlabel{acro:CLB}
\newlabel{acro:CLB}{{3.1}{17}{Processor type}{section*.33}{}}
\acronymused{CLB}
\acronymused{FPGA}
\acronymused{RISC}
\acronymused{FPGA}
\@writefile{toc}{\contentsline {section}{\numberline {3.2}Memory organization}{17}{section.3.2}\protected@file@percent }
\AC@undonewlabel{acro:BRAM}
\newlabel{acro:BRAM}{{3.2}{17}{Memory organization}{section*.34}{}}
\acronymused{BRAM}
\acronymused{FPGA}
\acronymused{VLIW}
\BKM@entry{id=30,dest={73656374696F6E2E332E34},srcline={118}}{4272616E63686573}
\citation{1675827}
\abx@aux@cite{1675827}
\abx@aux@segm{0}{0}{1675827}
\citation{mahlke1995comparison}
\abx@aux@cite{mahlke1995comparison}
\abx@aux@segm{0}{0}{mahlke1995comparison}
\@writefile{toc}{\contentsline {section}{\numberline {3.3}Instruction Dependencies}{18}{section.3.3}\protected@file@percent }
\@writefile{toc}{\contentsline {section}{\numberline {3.4}Branches}{18}{section.3.4}\protected@file@percent }
\acronymused{VLIW}
\BKM@entry{id=31,dest={73656374696F6E2E332E35},srcline={166}}{427970617373696E67}
\@writefile{lof}{\contentsline {figure}{\numberline {3.1}{\ignorespaces Schematic of membrane potential V$_{m}$ update for exponential \ac {IAF} model with \ac {CUBA} synapse. The critical path of V$_{m}$ is highlighted.}}{19}{figure.3.1}\protected@file@percent }
\acronymused{IAF}
\acronymused{CUBA}
\newlabel{fig:dfgiaf}{{3.1}{19}{Schematic of membrane potential V$_{m}$ update for exponential \ac {IAF} model with \ac {CUBA} synapse. The critical path of V$_{m}$ is highlighted}{figure.3.1}{}}
\@writefile{lof}{\contentsline {figure}{\numberline {3.2}{\ignorespaces Dependency graph for a sub-step in updating $V_m$ of exponential \ac {IAF} model with \ac {CUBA} synapse.}}{20}{figure.3.2}\protected@file@percent }
\acronymused{IAF}
\acronymused{CUBA}
\newlabel{fig:dependency}{{3.2}{20}{Dependency graph for a sub-step in updating $V_m$ of exponential \ac {IAF} model with \ac {CUBA} synapse}{figure.3.2}{}}
\@writefile{lof}{\contentsline {figure}{\numberline {3.3}{\ignorespaces The branched flow is shown to the left and a predicated flow is shown to the right. Condition storage in register p is highlighted.}}{20}{figure.3.3}\protected@file@percent }
\newlabel{fig:predicate}{{3.3}{20}{The branched flow is shown to the left and a predicated flow is shown to the right. Condition storage in register p is highlighted}{figure.3.3}{}}
\citation{285612}
\abx@aux@cite{285612}
\abx@aux@segm{0}{0}{285612}
\@writefile{toc}{\contentsline {section}{\numberline {3.5}Bypassing}{21}{section.3.5}\protected@file@percent }
\acronymused{VLIW}
\BKM@entry{id=32,dest={636861707465722E34},srcline={1}}{496D706C656D656E746174696F6E2064657461696C73}
\citation{Gewaltig:NEST}
\abx@aux@cite{Gewaltig:NEST}
\abx@aux@segm{0}{0}{Gewaltig:NEST}
\@writefile{toc}{\contentsline {chapter}{\numberline {4}Implementation details}{23}{chapter.4}\protected@file@percent }
\@writefile{lof}{\addvspace {10\p@ }}
\@writefile{lot}{\addvspace {10\p@ }}
\@writefile{lol}{\addvspace {10\p@ }}
\@writefile{loa}{\addvspace {10\p@ }}
\acronymused{IAF}
\acronymused{CUBA}
\newlabel{lst:example}{{4.1}{23}{C code for Single timestep of CUBA exponential IAF neuron}{lstlisting.4.1}{}}
\@writefile{lol}{\contentsline {lstlisting}{\numberline {4.1}C code for Single timestep of CUBA exponential IAF neuron}{23}{lstlisting.4.1}\protected@file@percent }
\BKM@entry{id=33,dest={73656374696F6E2E342E31},srcline={53}}{4350552064657369676E2049}
\@writefile{toc}{\contentsline {section}{\numberline {4.1}CPU design I}{24}{section.4.1}\protected@file@percent }
\acronymused{IAF}
\acronymused{AXI}
\@writefile{lot}{\contentsline {table}{\numberline {4.1}{\ignorespaces Instructions supported by the slots.(the immediate operations are also supported by the same slots that have the respective units)}}{26}{table.4.1}\protected@file@percent }
\newlabel{table:cpu1slots}{{4.1}{26}{Instructions supported by the slots.(the immediate operations are also supported by the same slots that have the respective units)}{table.4.1}{}}
\@writefile{lot}{\contentsline {table}{\numberline {4.2}{\ignorespaces Latency of operations. Load and store latencies are for the entire path}}{26}{table.4.2}\protected@file@percent }
\newlabel{table:aludelays}{{4.2}{26}{Latency of operations. Load and store latencies are for the entire path}{table.4.2}{}}
\BKM@entry{id=34,dest={73756273656374696F6E2E342E312E31},srcline={120}}{5072656469636174656420657865637574696F6E}
\BKM@entry{id=35,dest={73756273656374696F6E2E342E312E32},srcline={135}}{496E737472756374696F6E2073657420616E6420656E636F64696E67}
\@writefile{toc}{\contentsline {subsection}{\numberline {4.1.1}Predicated execution}{27}{subsection.4.1.1}\protected@file@percent }
\@writefile{toc}{\contentsline {subsection}{\numberline {4.1.2}Instruction set and encoding}{28}{subsection.4.1.2}\protected@file@percent }
\AC@undonewlabel{acro:FIFO}
\newlabel{acro:FIFO}{{4.1.2}{28}{Instruction set and encoding}{section*.35}{}}
\acronymused{FIFO}
\@writefile{lof}{\contentsline {figure}{\numberline {4.1}{\ignorespaces Instruction encoding for CPU I}}{29}{figure.4.1}\protected@file@percent }
\newlabel{fig:encodingcpu12}{{4.1}{29}{Instruction encoding for CPU I}{figure.4.1}{}}
\newlabel{lst:cpu1example}{{4.2}{30}{Voltage update code block with pre-initialized constants}{lstlisting.4.2}{}}
\@writefile{lol}{\contentsline {lstlisting}{\numberline {4.2}Voltage update code block with pre-initialized constants}{30}{lstlisting.4.2}\protected@file@percent }
\BKM@entry{id=36,dest={73756273656374696F6E2E342E312E33},srcline={284}}{4C696D69746174696F6E73}
\BKM@entry{id=37,dest={73656374696F6E2E342E32},srcline={291}}{4350552064657369676E204949}
\BKM@entry{id=38,dest={73756273656374696F6E2E342E322E31},srcline={292}}{4D6F64696669636174696F6E7320746F20696E737472756374696F6E}
\@writefile{toc}{\contentsline {subsection}{\numberline {4.1.3}Limitations}{31}{subsection.4.1.3}\protected@file@percent }
\@writefile{toc}{\contentsline {section}{\numberline {4.2}CPU design II}{31}{section.4.2}\protected@file@percent }
\@writefile{toc}{\contentsline {subsection}{\numberline {4.2.1}Modifications to instruction}{31}{subsection.4.2.1}\protected@file@percent }
\@writefile{lot}{\contentsline {table}{\numberline {4.3}{\ignorespaces Modifications to resource allocation. \texttt  {movc} and \texttt  {itof} are added. \texttt  {ld, st} are replaced by \texttt  {memrd, memwr} respectively.}}{32}{table.4.3}\protected@file@percent }
\newlabel{table:cpu2slots}{{4.3}{32}{Modifications to resource allocation. \code {movc} and \code {itof} are added. \code {ld, st} are replaced by \code {memrd, memwr} respectively}{table.4.3}{}}
\@writefile{toc}{\contentsline {subsubsection}{\nonumberline Split pipeline approach}{32}{section*.36}\protected@file@percent }
\@writefile{lof}{\contentsline {figure}{\numberline {4.2}{\ignorespaces Simplified schematic for CPU design II}}{33}{figure.4.2}\protected@file@percent }
\newlabel{fig:cpu2plain}{{4.2}{33}{Simplified schematic for CPU design II}{figure.4.2}{}}
\@writefile{lof}{\contentsline {figure}{\numberline {4.3}{\ignorespaces ALU operation initiation. Eg:\texttt  {add r0 r1}}}{34}{figure.4.3}\protected@file@percent }
\newlabel{fig:aluinit}{{4.3}{34}{ALU operation initiation. Eg:\code {add r0 r1}}{figure.4.3}{}}
\@writefile{lof}{\contentsline {figure}{\numberline {4.4}{\ignorespaces Result writeback. Eg:\texttt  {wb r1 add}}}{35}{figure.4.4}\protected@file@percent }
\newlabel{fig:resultwb}{{4.4}{35}{Result writeback. Eg:\code {wb r1 add}}{figure.4.4}{}}
\newlabel{fig:memwrcpu2}{{4.2.1}{36}{Memory operations}{section*.37}{}}
\@writefile{lof}{\contentsline {figure}{\numberline {4.5}{\ignorespaces Memory write for CPU design II}}{36}{figure.4.5}\protected@file@percent }
\newlabel{fig:memrd2}{{4.2.1}{36}{Memory operations}{figure.4.5}{}}
\@writefile{lof}{\contentsline {figure}{\numberline {4.6}{\ignorespaces Memory read for CPU design II}}{36}{figure.4.6}\protected@file@percent }
\@writefile{toc}{\contentsline {subsubsection}{\nonumberline Memory operations}{36}{section*.37}\protected@file@percent }
\@writefile{toc}{\contentsline {subsubsection}{\nonumberline Increased variety of operands}{37}{section*.38}\protected@file@percent }
\acronymused{VLIW}
\@writefile{toc}{\contentsline {subsubsection}{\nonumberline Predication changes}{37}{section*.39}\protected@file@percent }
\newlabel{fig:memwrschem}{{4.2.1}{38}{Memory operations}{figure.4.6}{}}
\@writefile{lof}{\contentsline {figure}{\numberline {4.7}{\ignorespaces Memory write \texttt  {memwr}}}{38}{figure.4.7}\protected@file@percent }
\@writefile{lof}{\contentsline {figure}{\numberline {4.8}{\ignorespaces ALU operation with bypassed operand Eg:\texttt  {addf mulf r1}}}{39}{figure.4.8}\protected@file@percent }
\newlabel{fig:arithbp}{{4.8}{39}{ALU operation with bypassed operand Eg:\code {addf mulf r1}}{figure.4.8}{}}
\BKM@entry{id=39,dest={73756273656374696F6E2E342E322E32},srcline={525}}{496E737472756374696F6E20736574}
\BKM@entry{id=40,dest={73756273656374696F6E2E342E322E33},srcline={530}}{417373656D626C7920636F6465}
\@writefile{toc}{\contentsline {subsection}{\numberline {4.2.2}Instruction set}{40}{subsection.4.2.2}\protected@file@percent }
\@writefile{toc}{\contentsline {subsection}{\numberline {4.2.3}Assembly code}{40}{subsection.4.2.3}\protected@file@percent }
\newlabel{lst:cpu2example}{{4.3}{40}{Voltage update code block}{lstlisting.4.3}{}}
\@writefile{lol}{\contentsline {lstlisting}{\numberline {4.3}Voltage update code block}{40}{lstlisting.4.3}\protected@file@percent }
\@writefile{lof}{\contentsline {figure}{\numberline {4.9}{\ignorespaces Effect of predicate condition not satisfying}}{41}{figure.4.9}\protected@file@percent }
\newlabel{fig:predicate2}{{4.9}{41}{Effect of predicate condition not satisfying}{figure.4.9}{}}
\@writefile{lof}{\contentsline {figure}{\numberline {4.10}{\ignorespaces Instruction encoding for subword in \ac {CPU} design II}}{42}{figure.4.10}\protected@file@percent }
\acronymused{CPU}
\newlabel{fig:encodingcpu2}{{4.10}{42}{Instruction encoding for subword in \ac {CPU} design II}{figure.4.10}{}}
\BKM@entry{id=41,dest={636861707465722E35},srcline={1}}{526573756C747320616E64206D6561737572656D656E7473}
\citation{10.1145/960116.54022}
\abx@aux@cite{10.1145/960116.54022}
\abx@aux@segm{0}{0}{10.1145/960116.54022}
\BKM@entry{id=42,dest={73656374696F6E2E352E31},srcline={8}}{536F66747761726520706970656C696E656420636F64652067656E65726174696F6E}
\@writefile{toc}{\contentsline {chapter}{\numberline {5}Results and measurements}{45}{chapter.5}\protected@file@percent }
\@writefile{lof}{\addvspace {10\p@ }}
\@writefile{lot}{\addvspace {10\p@ }}
\@writefile{lol}{\addvspace {10\p@ }}
\@writefile{loa}{\addvspace {10\p@ }}
\AC@undonewlabel{acro:HLS}
\newlabel{acro:HLS}{{5}{45}{Results and measurements}{section*.40}{}}
\acronymused{HLS}
\acronymused{HLS}
\acronymused{RTL}
\AC@undonewlabel{acro:RTL}
\newlabel{acro:RTL}{{5}{45}{Results and measurements}{section*.41}{}}
\acronymused{RTL}
\acronymused{BRAM}
\@writefile{toc}{\contentsline {section}{\numberline {5.1}Software pipelined code generation}{45}{section.5.1}\protected@file@percent }
\acronymused{II}
\acronymused{II}
\BKM@entry{id=43,dest={73756273656374696F6E2E352E312E31},srcline={23}}{417373656D626C7920636F6465}
\@writefile{toc}{\contentsline {subsection}{\numberline {5.1.1}Assembly code}{46}{subsection.5.1.1}\protected@file@percent }
\BKM@entry{id=44,dest={73656374696F6E2E352E32},srcline={108}}{524953432D5620696D706C656D656E746174696F6E}
\citation{9099108}
\abx@aux@cite{9099108}
\abx@aux@segm{0}{0}{9099108}
\citation{6241660}
\abx@aux@cite{6241660}
\abx@aux@segm{0}{0}{6241660}
\newlabel{lst:pipelinevolt}{{5.1}{47}{Memory map and kernel code for $V_m$ and $t_{ref}$ update. Code in black, red and blue represents successive iterations. Latency=24, throughput=$f$/8}{lstlisting.5.1}{}}
\@writefile{lol}{\contentsline {lstlisting}{\numberline {5.1}Memory map and kernel code for $V_m$ and $t_{ref}$ update. Code in black, red and blue represents successive iterations. Latency=24, throughput=$f$/8}{47}{lstlisting.5.1}\protected@file@percent }
\newlabel{lst:pipelinecurrent}{{5.2}{47}{Memory map and kernel code for updating currents, latency=10, throughput=$f$/5}{lstlisting.5.2}{}}
\@writefile{lol}{\contentsline {lstlisting}{\numberline {5.2}Memory map and kernel code for updating currents, latency=10, throughput=$f$/5}{47}{lstlisting.5.2}\protected@file@percent }
\@writefile{toc}{\contentsline {section}{\numberline {5.2}RISC-V implementation}{48}{section.5.2}\protected@file@percent }
\AC@undonewlabel{acro:BOOM}
\newlabel{acro:BOOM}{{5.2}{48}{RISC-V implementation}{section*.42}{}}
\acronymused{BOOM}
\acronymused{BOOM}
\BKM@entry{id=45,dest={73656374696F6E2E352E33},srcline={118}}{506572666F726D616E636520616E64206861726477617265207574696C697A6174696F6E5C28566F6C74616765206C6F6F705C29}
\@writefile{toc}{\contentsline {section}{\numberline {5.3}Performance and hardware utilization(Voltage loop)}{49}{section.5.3}\protected@file@percent }
\acronymused{II}
\acronymused{BOOM}
\@writefile{lof}{\contentsline {figure}{\numberline {5.1}{\ignorespaces Latency and Throughput of implementations}}{50}{figure.5.1}\protected@file@percent }
\newlabel{fig:performance}{{5.1}{50}{Latency and Throughput of implementations}{figure.5.1}{}}
\@writefile{lot}{\contentsline {table}{\numberline {5.1}{\ignorespaces Hardware utilization of implementations}}{50}{table.5.1}\protected@file@percent }
\newlabel{tab:resourceutil}{{5.1}{50}{Hardware utilization of implementations}{table.5.1}{}}
\acronymused{BOOM}
\acronymused{BOOM}
\AC@undonewlabel{acro:LUT}
\newlabel{acro:LUT}{{5.3}{51}{Performance and hardware utilization(Voltage loop)}{section*.43}{}}
\acronymused{LUT}
\AC@undonewlabel{acro:FF}
\newlabel{acro:FF}{{5.3}{51}{Performance and hardware utilization(Voltage loop)}{section*.44}{}}
\acronymused{FF}
\acronymused{DSP}
\acronymused{FF}
\acronymused{BOOM}
\acronymused{IPC}
\acronymused{IPC}
\BKM@entry{id=46,dest={636861707465722E36},srcline={1}}{436F6E636C7573696F6E}
\BKM@entry{id=47,dest={73656374696F6E2E362E31},srcline={6}}{46757475726520696D70726F76656D656E7473}
\citation{10.1145/378239.379050}
\abx@aux@cite{10.1145/378239.379050}
\abx@aux@segm{0}{0}{10.1145/378239.379050}
\@writefile{toc}{\contentsline {chapter}{\numberline {6}Conclusion}{53}{chapter.6}\protected@file@percent }
\@writefile{lof}{\addvspace {10\p@ }}
\@writefile{lot}{\addvspace {10\p@ }}
\@writefile{lol}{\addvspace {10\p@ }}
\@writefile{loa}{\addvspace {10\p@ }}
\citation{GABBIANI2010237}
\abx@aux@cite{GABBIANI2010237}
\abx@aux@segm{0}{0}{GABBIANI2010237}
\@writefile{toc}{\contentsline {section}{\numberline {6.1}Future improvements}{54}{section.6.1}\protected@file@percent }
\BKM@entry{id=48,dest={636861707465722A2E3435},srcline={15}}{4269626C696F677261706879}
\@writefile{toc}{\contentsline {chapter}{\nonumberline Bibliography}{55}{chapter*.45}\protected@file@percent }
\@writefile{lof}{\addvspace {10\p@ }}
\@writefile{lot}{\addvspace {10\p@ }}
\@writefile{lol}{\addvspace {10\p@ }}
\@writefile{loa}{\addvspace {10\p@ }}
\abx@aux@refcontextdefaultsdone
\abx@aux@defaultrefcontext{0}{285612}{nty/global//global/global}
\abx@aux@defaultrefcontext{0}{9099108}{nty/global//global/global}
\abx@aux@defaultrefcontext{0}{6241660}{nty/global//global/global}
\abx@aux@defaultrefcontext{0}{braun1983differential}{nty/global//global/global}
\abx@aux@defaultrefcontext{0}{butcher1996history}{nty/global//global/global}
\abx@aux@defaultrefcontext{0}{cao2015spiking}{nty/global//global/global}
\abx@aux@defaultrefcontext{0}{caporale2008spike}{nty/global//global/global}
\abx@aux@defaultrefcontext{0}{CHEN2020264}{nty/global//global/global}
\abx@aux@defaultrefcontext{0}{connor1971prediction}{nty/global//global/global}
\abx@aux@defaultrefcontext{0}{8259423}{nty/global//global/global}
\abx@aux@defaultrefcontext{0}{duncan1990survey}{nty/global//global/global}
\abx@aux@defaultrefcontext{0}{eppler2009pynest}{nty/global//global/global}
\abx@aux@defaultrefcontext{0}{esmaeilzadeh2012neural}{nty/global//global/global}
\abx@aux@defaultrefcontext{0}{fedus2022switch}{nty/global//global/global}
\abx@aux@defaultrefcontext{0}{1675827}{nty/global//global/global}
\abx@aux@defaultrefcontext{0}{1447203}{nty/global//global/global}
\abx@aux@defaultrefcontext{0}{5009071}{nty/global//global/global}
\abx@aux@defaultrefcontext{0}{furber2012overview}{nty/global//global/global}
\abx@aux@defaultrefcontext{0}{furber2014spinnaker}{nty/global//global/global}
\abx@aux@defaultrefcontext{0}{furber2020spinnaker}{nty/global//global/global}
\abx@aux@defaultrefcontext{0}{GABBIANI2010237}{nty/global//global/global}
\abx@aux@defaultrefcontext{0}{epflbook}{nty/global//global/global}
\abx@aux@defaultrefcontext{0}{Gewaltig:NEST}{nty/global//global/global}
\abx@aux@defaultrefcontext{0}{herculano2012remarkable}{nty/global//global/global}
\abx@aux@defaultrefcontext{0}{sp004764}{nty/global//global/global}
\abx@aux@defaultrefcontext{0}{hodgkin1990quantitative}{nty/global//global/global}
\abx@aux@defaultrefcontext{0}{hsu1986highly}{nty/global//global/global}
\abx@aux@defaultrefcontext{0}{huff1993lifetime}{nty/global//global/global}
\abx@aux@defaultrefcontext{0}{10.1145/378239.379050}{nty/global//global/global}
\abx@aux@defaultrefcontext{0}{jouppi2017datacenter}{nty/global//global/global}
\abx@aux@defaultrefcontext{0}{1653825}{nty/global//global/global}
\abx@aux@defaultrefcontext{0}{10.1145/960116.54022}{nty/global//global/global}
\abx@aux@defaultrefcontext{0}{lam1988software}{nty/global//global/global}
\abx@aux@defaultrefcontext{0}{mahlke1995comparison}{nty/global//global/global}
\abx@aux@defaultrefcontext{0}{MARKRAM201139}{nty/global//global/global}
\abx@aux@defaultrefcontext{0}{1911.02385}{nty/global//global/global}
\abx@aux@defaultrefcontext{0}{meffin_burkitt_grayden_2004}{nty/global//global/global}
\abx@aux@defaultrefcontext{0}{2111.03746}{nty/global//global/global}
\abx@aux@defaultrefcontext{0}{orchard2021efficient}{nty/global//global/global}
\abx@aux@defaultrefcontext{0}{6330636}{nty/global//global/global}
\abx@aux@defaultrefcontext{0}{nestml}{nty/global//global/global}
\abx@aux@defaultrefcontext{0}{7045812}{nty/global//global/global}
\abx@aux@defaultrefcontext{0}{rau1996iterative}{nty/global//global/global}
\abx@aux@defaultrefcontext{0}{schuman2017survey}{nty/global//global/global}
\abx@aux@defaultrefcontext{0}{shen2013modern}{nty/global//global/global}
\abx@aux@defaultrefcontext{0}{9782767}{nty/global//global/global}
\abx@aux@defaultrefcontext{0}{soltic2008evolving}{nty/global//global/global}
\abx@aux@defaultrefcontext{0}{yousefzadeh2017hardware}{nty/global//global/global}
\abx@aux@defaultlabelprefix{0}{285612}{}
\abx@aux@defaultlabelprefix{0}{9099108}{}
\abx@aux@defaultlabelprefix{0}{6241660}{}
\abx@aux@defaultlabelprefix{0}{braun1983differential}{}
\abx@aux@defaultlabelprefix{0}{butcher1996history}{}
\abx@aux@defaultlabelprefix{0}{cao2015spiking}{}
\abx@aux@defaultlabelprefix{0}{caporale2008spike}{}
\abx@aux@defaultlabelprefix{0}{CHEN2020264}{}
\abx@aux@defaultlabelprefix{0}{connor1971prediction}{}
\abx@aux@defaultlabelprefix{0}{8259423}{}
\abx@aux@defaultlabelprefix{0}{duncan1990survey}{}
\abx@aux@defaultlabelprefix{0}{eppler2009pynest}{}
\abx@aux@defaultlabelprefix{0}{esmaeilzadeh2012neural}{}
\abx@aux@defaultlabelprefix{0}{fedus2022switch}{}
\abx@aux@defaultlabelprefix{0}{1675827}{}
\abx@aux@defaultlabelprefix{0}{1447203}{}
\abx@aux@defaultlabelprefix{0}{5009071}{}
\abx@aux@defaultlabelprefix{0}{furber2012overview}{}
\abx@aux@defaultlabelprefix{0}{furber2014spinnaker}{}
\abx@aux@defaultlabelprefix{0}{furber2020spinnaker}{}
\abx@aux@defaultlabelprefix{0}{GABBIANI2010237}{}
\abx@aux@defaultlabelprefix{0}{epflbook}{}
\abx@aux@defaultlabelprefix{0}{Gewaltig:NEST}{}
\abx@aux@defaultlabelprefix{0}{herculano2012remarkable}{}
\abx@aux@defaultlabelprefix{0}{sp004764}{}
\abx@aux@defaultlabelprefix{0}{hodgkin1990quantitative}{}
\abx@aux@defaultlabelprefix{0}{hsu1986highly}{}
\abx@aux@defaultlabelprefix{0}{huff1993lifetime}{}
\abx@aux@defaultlabelprefix{0}{10.1145/378239.379050}{}
\abx@aux@defaultlabelprefix{0}{jouppi2017datacenter}{}
\abx@aux@defaultlabelprefix{0}{1653825}{}
\abx@aux@defaultlabelprefix{0}{10.1145/960116.54022}{}
\abx@aux@defaultlabelprefix{0}{lam1988software}{}
\abx@aux@defaultlabelprefix{0}{mahlke1995comparison}{}
\abx@aux@defaultlabelprefix{0}{MARKRAM201139}{}
\abx@aux@defaultlabelprefix{0}{1911.02385}{}
\abx@aux@defaultlabelprefix{0}{meffin_burkitt_grayden_2004}{}
\abx@aux@defaultlabelprefix{0}{2111.03746}{}
\abx@aux@defaultlabelprefix{0}{orchard2021efficient}{}
\abx@aux@defaultlabelprefix{0}{6330636}{}
\abx@aux@defaultlabelprefix{0}{nestml}{}
\abx@aux@defaultlabelprefix{0}{7045812}{}
\abx@aux@defaultlabelprefix{0}{rau1996iterative}{}
\abx@aux@defaultlabelprefix{0}{schuman2017survey}{}
\abx@aux@defaultlabelprefix{0}{shen2013modern}{}
\abx@aux@defaultlabelprefix{0}{9782767}{}
\abx@aux@defaultlabelprefix{0}{soltic2008evolving}{}
\abx@aux@defaultlabelprefix{0}{yousefzadeh2017hardware}{}
\global\@namedef{scr@dte@chapter@lastmaxnumwidth}{11.87997pt}
\global\@namedef{scr@dte@section@lastmaxnumwidth}{19.71361pt}
\global\@namedef{scr@dte@subsection@lastmaxnumwidth}{28.8524pt}
\global\@namedef{scr@dte@table@lastmaxnumwidth}{19.71361pt}
\global\@namedef{scr@dte@figure@lastmaxnumwidth}{25.58855pt}
