\boolfalse {citerequest}\boolfalse {citetracker}\boolfalse {pagetracker}\boolfalse {backtracker}\relax 
\babel@toc {english}{}
\addvspace {10\p@ }
\addvspace {10\p@ }
\contentsline {figure}{\numberline {2.1}{\ignorespaces Behavior of membrane potential with time. The membrane potential depolarizes initially, then reaches threshold and then repolarizes. It then finally returns to rest.}}{7}{figure.2.1}%
\contentsline {figure}{\numberline {2.2}{\ignorespaces The execution flow of a regular loop and a software pipelined loop. Loop-carried dependencies execute operations of different iterations within the kernel.}}{11}{figure.2.2}%
\addvspace {10\p@ }
\contentsline {figure}{\numberline {3.1}{\ignorespaces Schematic of membrane potential V$_{m}$ update for exponential \ac {IAF} model with \ac {CUBA} synapse. The critical path of V$_{m}$ is highlighted.}}{19}{figure.3.1}%
\contentsline {figure}{\numberline {3.2}{\ignorespaces Dependency graph for a sub-step in updating $V_m$ of exponential \ac {IAF} model with \ac {CUBA} synapse.}}{20}{figure.3.2}%
\contentsline {figure}{\numberline {3.3}{\ignorespaces The branched flow is shown to the left and a predicated flow is shown to the right. Condition storage in register p is highlighted.}}{20}{figure.3.3}%
\addvspace {10\p@ }
\contentsline {figure}{\numberline {4.1}{\ignorespaces Instruction encoding for CPU I}}{29}{figure.4.1}%
\contentsline {figure}{\numberline {4.2}{\ignorespaces Simplified schematic for CPU design II}}{33}{figure.4.2}%
\contentsline {figure}{\numberline {4.3}{\ignorespaces ALU operation initiation. Eg:\texttt {add r0 r1}}}{34}{figure.4.3}%
\contentsline {figure}{\numberline {4.4}{\ignorespaces Result writeback. Eg:\texttt {wb r1 add}}}{35}{figure.4.4}%
\contentsline {figure}{\numberline {4.5}{\ignorespaces Memory write for CPU design II}}{36}{figure.4.5}%
\contentsline {figure}{\numberline {4.6}{\ignorespaces Memory read for CPU design II}}{36}{figure.4.6}%
\contentsline {figure}{\numberline {4.7}{\ignorespaces Memory write \texttt {memwr}}}{38}{figure.4.7}%
\contentsline {figure}{\numberline {4.8}{\ignorespaces ALU operation with bypassed operand Eg:\texttt {addf mulf r1}}}{39}{figure.4.8}%
\contentsline {figure}{\numberline {4.9}{\ignorespaces Effect of predicate condition not satisfying}}{41}{figure.4.9}%
\contentsline {figure}{\numberline {4.10}{\ignorespaces Instruction encoding for subword in \ac {CPU} design II}}{42}{figure.4.10}%
\addvspace {10\p@ }
\contentsline {figure}{\numberline {5.1}{\ignorespaces Latency and Throughput of implementations}}{50}{figure.5.1}%
\addvspace {10\p@ }
\addvspace {10\p@ }
